[{
  "name": "D: Was, wenn ich nicht an der THM studiere?",
  "description": "Hinweis für Externe",
  "date": "2020-02-01T09:12:27.270Z",
  "dateUpdated": "2020-02-10T12:09:48.981Z",
  "editors": [],
  "owner": "fGBjd8xcxAgkPYM4B",
  "visible": false,
  "ratings": true,
  "kind": "personal",
  "price": 0,
  "reviewed": false,
  "reviewer": "undefined",
  "request": false,
  "rating": 0,
  "raterCount": 0,
  "quantity": 1,
  "license": [],
  "userDeleted": false,
  "learningActive": false,
  "maxCards": 0,
  "daysBeforeReset": 0,
  "learningStart": "1970-01-01T00:00:00.000Z",
  "learningEnd": "1970-01-01T00:00:00.000Z",
  "registrationPeriod": "1970-01-01T00:00:00.000Z",
  "learningInterval": [],
  "wordcloud": false,
  "shuffled": false,
  "cardType": 8,
  "difficulty": 0,
  "noDifficulty": true,
  "sortType": 1,
  "gotWorkload": false,
  "lastEditor": "fGBjd8xcxAgkPYM4B",
  "useCase": {
    "enabled": false,
    "priority": 0
  },
  "originalAuthorName": {
    "title": "Dr.",
    "birthname": "Quibeldey-Cirkel",
    "givenname": "Klaus"
  },
  "workload": {
    "bonus": {
      "count": 0,
      "minLearned": 20
    },
    "normal": {
      "count": 0
    },
    "simulator": {
      "errorCount": [
        [
          50,
          20,
          10,
          5,
          2
        ]
      ]
    }
  },
  "lecturerAuthorized": false
}, {
  "subject": "Alle sind willkommen",
  "front": "(#) Wenn du nicht an der THM studierst…\n\n<br>\n\n!!!TIP Melde dich über Facebook, Twitter oder Google an\n   Mit einer Anmeldung kannst du nach dem Wiederholungsplan von Leitner Karten lernen. Wenn du Mitteilungen im Browser erlaubst, profitierst du auch vom Erinnerungsdienst.<br><br>\n\n!!!ERROR\n   Mit dem anonymen Zugang »Ich schau mich nur mal um« ist das Kartenlernen nach Leitner nicht möglich.\n\n!!!WARNING\n   Leider kannst du keine finanzielle Förderung erhalten, wenn du nicht an einer hessischen Hochschule studierst.",
  "centerTextElement": [
    true,
    true,
    true,
    true,
    true,
    true
  ],
  "alignType": [
    0,
    0,
    0,
    0,
    0,
    0
  ],
  "date": "2020-02-01T09:37:48.274Z",
  "learningGoalLevel": 0,
  "backgroundStyle": 1,
  "owner": "fGBjd8xcxAgkPYM4B",
  "dateUpdated": "2020-02-10T12:09:48.976Z",
  "lastEditor": "fGBjd8xcxAgkPYM4B",
  "originalAuthorName": {
    "title": "Dr.",
    "birthname": "Quibeldey-Cirkel",
    "givenname": "Klaus"
  }
}]